[
  {
    "id" : "new-cabinet",
    "message" : "<p>Вы находитесь в новом личном кабинете сервиса Наложка.</p> <p>Кабинет работает в режиме бета-теста. Если у вас возникнут проблемы – напишите в чат или позвоните в службу поддержки по телефону, вам обязательно помогут.</p> <p>Прежде чем приступить к работе со сделками, рекомендуем ознакомиться с информацией на нашем сайте <a href=\"https://xn--80aarqdkj.xn--p1ai/news/new-cabinet\" target=\"_blank\">https://наложка.рф/news/new-cabinet</a>.</p>"
  }
]
